0,Not given
10,Buried weak layer of new snow
11,Buried weak layer of surface hoar
13,Buried weak layer of faceted snow near surface
14,Poor bonding between crust and overlying snow
15,Poor bonding between layers in wind deposited snow
16,Buried weak layer of faceted snow near the ground
18,Buried weak layer of faceted snow above a crust
19,Buried weak layer of faceted snow beneath a crust
20,Wet snow/melting near the ground
22,Water pooling in/above snow layers
24,Loose snow
